[{
    "desc": "Fiction, Prose, or Other Writing",
    "header_name": "Fic",
    "slug": "fic"
},{
    "desc": "Art, Illustration or Comic",
    "header_name": "Art",
    "slug": "art"
},{
    "desc": "Graphics, Gifsets, Edits, etc.",
    "header_name": "Graphics",
    "slug": "graphic"
},{
    "desc": "Podfic",
    "header_name": "Podfic",
    "slug": "podfic"
},{
    "desc": "Video",
    "header_name": "Video",
    "slug": "video"
},{
    "desc": "Crafts & Fanmade Merchandise",
    "header_name": "Crafts",
    "slug": "craft"
},{
    "desc": "Other fanwork-related services, including Beta-ing, Consulting, etc.",
    "header_name": "Fanwork/Beta",
    "slug": "fanwork"
}]
